Group 13 GLM - Ikea Dataset
…
To solve this, I computed the mean of the depth, height and width by the category and replaced the NAs by this value shown below.

## # A tibble: 500 x 10
## # Groups:   category [17]
##        X  item_id category price sellable_online other_colors depth height width
##    <int>    <int> <chr>    <dbl> <lgl>           <chr>        <dbl>  <dbl> <dbl>
##  1     1 60406785 Chairs     149 TRUE            No            44    103    52  
##  2     2 99221446 Tables ~  5465 TRUE            No            50.5   65.7  74.1
##  3     3 29221765 Bookcas~   660 TRUE            No            35    176    86  
##  4     4 20403374 Sofas &~   395 TRUE            Yes          107.    76.6 162. 
##  5     5 89256262 Chairs    1895 TRUE            Yes          164    104   117  
##  6     6 50165079 Nursery~   375 TRUE            No            53     93    52  
##  7     7 40284191 Sofas &~   150 TRUE            No           107.    15   162. 
##  8     8 19291315 Cabinet~   375 TRUE            No            47     92    45  
##  9     9   439468 Wardrob~   995 TRUE            No            47    186   120  
## 10    10 49252553 Chairs     400 TRUE            No            61     87    56  
## # ... with 490 more rows, and 1 more variable: thousandRiyals <chr>
…
